{
	"id": "a4ff8e03-8d71-4716-943a-c2618a5cff1f",
	"name": "local",
	"values": [
		{
			"key": "apiUrl",
			"value": "",
			"enabled": true
		},
		{
			"key": "patientAddressId",
			"value": "",
			"enabled": true
		},
		{
			"key": "patientContactId",
			"value": "",
			"enabled": true
		},
		{
			"key": "patientId",
			"value": "",
			"enabled": true
		},
		{
			"key": "patientIdentifierId",
			"value": "",
			"enabled": true
		},
		{
			"key": "pracititionerQualificationId",
			"value": "",
			"enabled": true
		},
		{
			"key": "practitionerAddressId",
			"value": "",
			"enabled": true
		},
		{
			"key": "practitionerId",
			"value": "",
			"enabled": true
		},
		{
			"key": "practitionerIdentifierId",
			"value": "",
			"enabled": true
		}
	],
	"_postman_variable_scope": "environment",
	"_postman_exported_at": "2021-01-12T04:55:28.980Z",
	"_postman_exported_using": "Postman/7.36.1"
}